{
	"payload": {
		"data": {
			"config_update": {
				"channel_id": "mychannel",
				"isolated_data": {},
				"read_set": {
					"groups": {
						"Application": {
							"groups": {
								"Org1MSP": {
									"groups": {},
									"mod_policy": "",
									"policies": {},
									"values": {},
									"version": "0"
								},
								"Org2MSP": {
									"groups": {},
									"mod_policy": "",
									"policies": {},
									"values": {},
									"version": "0"
								}
							},
							"mod_policy": "",
							"policies": {},
							"values": {},
							"version": "0"
						}
					},
					"mod_policy": "",
					"policies": {},
					"values": {
						"Consortium": {
							"mod_policy": "",
							"value": null,
							"version": "0"
						}
					},
					"version": "0"
				},
				"write_set": {
					"groups": {
						"Application": {
							"groups": {
								"Org1MSP": {
									"groups": {},
									"mod_policy": "",
									"policies": {},
									"values": {},
									"version": "0"
								},
								"Org2MSP": {
									"groups": {},
									"mod_policy": "",
									"policies": {},
									"values": {},
									"version": "0"
								}
							},
							"mod_policy": "Admins",
							"policies": {
								"Admins": {
									"mod_policy": "Admins",
									"policy": {
										"type": 3,
										"value": {
											"rule": "MAJORITY",
											"sub_policy": "Admins"
										}
									},
									"version": "0"
								},
								"Readers": {
									"mod_policy": "Admins",
									"policy": {
										"type": 3,
										"value": {
											"rule": "ANY",
											"sub_policy": "Readers"
										}
									},
									"version": "0"
								},
								"Writers": {
									"mod_policy": "Admins",
									"policy": {
										"type": 3,
										"value": {
											"rule": "ANY",
											"sub_policy": "Writers"
										}
									},
									"version": "0"
								}
							},
							"values": {
								"Capabilities": {
									"mod_policy": "Admins",
									"value": {
										"capabilities": {
											"V1_4_2": {}
										}
									},
									"version": "0"
								}
							},
							"version": "1"
						}
					},
					"mod_policy": "",
					"policies": {},
					"values": {
						"Consortium": {
							"mod_policy": "",
							"value": {
								"name": "IranScmConsortium"
							},
							"version": "0"
						}
					},
					"version": "0"
				}
			},
			"signatures": []
		},
		"header": {
			"channel_header": {
				"channel_id": "mychannel",
				"epoch": "0",
				"extension": null,
				"timestamp": "2019-12-10T22:34:56Z",
				"tls_cert_hash": null,
				"tx_id": "",
				"type": 2,
				"version": 0
			},
			"signature_header": null
		}
	},
	"signature": null
}
