{
	"payload": {
		"data": {
			"config_update": {
				"channel_id": "mychannel",
				"isolated_data": {},
				"read_set": {
					"groups": {
						"Application": {
							"groups": {
								"Org1MSP": {
									"groups": {},
									"mod_policy": "",
									"policies": {
										"Admins": {
											"mod_policy": "",
											"policy": null,
											"version": "0"
										},
										"Readers": {
											"mod_policy": "",
											"policy": null,
											"version": "0"
										},
										"Writers": {
											"mod_policy": "",
											"policy": null,
											"version": "0"
										}
									},
									"values": {
										"MSP": {
											"mod_policy": "",
											"value": null,
											"version": "0"
										}
									},
									"version": "0"
								}
							},
							"mod_policy": "Admins",
							"policies": {},
							"values": {},
							"version": "1"
						}
					},
					"mod_policy": "",
					"policies": {},
					"values": {},
					"version": "0"
				},
				"write_set": {
					"groups": {
						"Application": {
							"groups": {
								"Org1MSP": {
									"groups": {},
									"mod_policy": "Admins",
									"policies": {
										"Admins": {
											"mod_policy": "",
											"policy": null,
											"version": "0"
										},
										"Readers": {
											"mod_policy": "",
											"policy": null,
											"version": "0"
										},
										"Writers": {
											"mod_policy": "",
											"policy": null,
											"version": "0"
										}
									},
									"values": {
										"AnchorPeers": {
											"mod_policy": "Admins",
											"value": {
												"anchor_peers": [
													{
														"host": "peer0.org1.iranscm.tk",
														"port": 7051
													}
												]
											},
											"version": "0"
										},
										"MSP": {
											"mod_policy": "",
											"value": null,
											"version": "0"
										}
									},
									"version": "1"
								}
							},
							"mod_policy": "Admins",
							"policies": {},
							"values": {},
							"version": "1"
						}
					},
					"mod_policy": "",
					"policies": {},
					"values": {},
					"version": "0"
				}
			},
			"signatures": []
		},
		"header": {
			"channel_header": {
				"channel_id": "mychannel",
				"epoch": "0",
				"extension": null,
				"timestamp": null,
				"tls_cert_hash": null,
				"tx_id": "",
				"type": 2,
				"version": 0
			},
			"signature_header": null
		}
	},
	"signature": null
}
